{
    "deviation": {
        "deviationId": 112233445,
        "type": "image",
        "typeId": 1,
        "printId": 2,
        "url": "https://www.deviantart.com/exampleusername/art/Example-Title-112233445",
        "title": "Example Title",
        "isJournal": false,
        "isVideo": false,
        "isPurchasable": false,
        "isFavouritable": false,
        "publishedTime": "2021-05-18T12:23:01-0700",
        "isTextEditable": false,
        "legacyTextEditUrl": "unknown",
        "isShareable": false,
        "isCommentable": false,
        "isFavourited": false,
        "isDeleted": false,
        "isMature": false,
        "isDownloadable": false,
        "isAntisocial": false,
        "isBlocked": false,
        "isPublished": false,
        "isDailyDeviation": false,
        "hasPrivateComments": false,
        "blockReasons": [],
        "author": {
            "userId": 12345678,
            "useridUuid": "43d8f41c-cdd8-41d2-9878-11e0f77ea0a3",
            "username": "ExampleUsername",
            "usericon": "https://a.deviantart.net/avatars-big/m/o/exampleusername.jpg?4",
            "type": "regular",
            "isWatching": false,
            "isSubscribed": false,
            "isNewDeviant": true
        },
        "stats": {
            "comments": 18,
            "favourites": 2063
        },
        "media": {
            "baseUri": "https://images-wixmp-ed30a86b8c4ca887773594c2.wixmp.com/f/49402c4d-1fe3-4f6d-8144-2f58aee8d82d/denu3kl-280bcd78-b8fc-4c60-911a-1ca732a2b7a9.jpg",
            "prettyName": "example_title_by_exampleusername_denu3kl",
            "token": [
                "eyJ0eXAiOiJKV1QiLCJhbGciOiJIUzI1NiJ9.eyJzdWIiO"
            ],
            "types": [
                {
                    "t": "150",
                    "r": 0,
                    "c": "v1/fit/w_150,h_150,q_70,strp/<prettyName>-150.jpg",
                    "h": 0,
                    "w": 0
                }
            ]
        },
        "extended": {
            "deviationUuid": "656CC452-3566-455C-88FA-72E2CEF38EA2",
            "canUserAddToGroup": true,
            "groupListUrl": "https://www.deviantart.com/deviation/112233445/groups",
            "description": "<div><p>Example description</p></div>",
            "originalFile": {
                "url": "https://www.deviantart.com/download/886561941/denu3kl-280bcd78-b8fc-4c60-911a-1ca732a2b7a9.jpg?token=feb6d33bc5adba90f6392cc85c64598f52fbb648&ts=1627488080",
                "type": "original",
                "width": 2480,
                "height": 2480,
                "filesize": 123456789
            },
            "tags": [
                {
                    "name": "exampletag",
                    "url": "https://www.deviantart.com/tag/exampletag"
                },
                {
                    "name": "exampletag2",
                    "url": "https://www.deviantart.com/tag/exampletag2"
                }
            ],
            "subjectTags": [
                {
                    "name": "exampletag",
                    "url": "https://www.deviantart.com/tag/exampletag"
                }
            ],
            "typeFacet": {
                "linkTo": "https://www.deviantart.com/deviations/visual-art/",
                "urlFragment": "visual-art",
                "displayNameEn": "Visual Art"
            },
            "license": "none",
            "download": {
                "url": "https://www.deviantart.com/download/886561941/denu3kl-280bcd78-b8fc-4c60-911a-1ca732a2b7a9.jpg?token=feb6d33bc5adba90f6392cc85c64598f52fbb648&ts=1627488080",
                "type": "original",
                "width": 2480,
                "height": 2480,
                "filesize": 123456789
            },
            "relatedStreams": {
                "gallery": [
                    {
                        "deviationId": 112233445,
                        "type": "image",
                        "typeId": 1,
                        "printId": 2,
                        "url": "https://www.deviantart.com/exampleusername/art/Example-Title-112233445",
                        "title": "Example Title",
                        "isJournal": false,
                        "isVideo": false,
                        "isPurchasable": false,
                        "isFavouritable": false,
                        "publishedTime": "2021-05-18T12:23:01-0700",
                        "isTextEditable": false,
                        "legacyTextEditUrl": "unknown",
                        "isShareable": false,
                        "isCommentable": false,
                        "isFavourited": false,
                        "isDeleted": false,
                        "isMature": false,
                        "isDownloadable": false,
                        "isAntisocial": false,
                        "isBlocked": false,
                        "isPublished": false,
                        "isDailyDeviation": false,
                        "hasPrivateComments": false,
                        "blockReasons": [],
                        "author": {
                            "userId": 12345678,
                            "useridUuid": "43d8f41c-cdd8-41d2-9878-11e0f77ea0a3",
                            "username": "ExampleUsername",
                            "usericon": "https://a.deviantart.net/avatars-big/m/o/exampleusername.jpg?4",
                            "type": "regular",
                            "isWatching": false,
                            "isSubscribed": false,
                            "isNewDeviant": true
                        },
                        "stats": {
                            "comments": 18,
                            "favourites": 2063
                        },
                        "media": {
                            "baseUri": "https://images-wixmp-ed30a86b8c4ca887773594c2.wixmp.com/f/49402c4d-1fe3-4f6d-8144-2f58aee8d82d/denu3kl-280bcd78-b8fc-4c60-911a-1ca732a2b7a9.jpg",
                            "prettyName": "example_title_by_exampleusername_denu3kl",
                            "token": [
                                "eyJ0eXAiOiJKV1QiLCJhbGciOiJIUzI1NiJ9.eyJzdWIiO"
                            ],
                            "types": [
                                {
                                    "t": "150",
                                    "r": 0,
                                    "c": "v1/fit/w_150,h_150,q_70,strp/<prettyName>-150.jpg",
                                    "h": 0,
                                    "w": 0
                                }
                            ]
                        }
                    }
                ],
                "recommended": [
                    {
                        "deviationId": 112233445,
                        "type": "image",
                        "typeId": 1,
                        "printId": 2,
                        "url": "https://www.deviantart.com/exampleusername/art/Example-Title-112233445",
                        "title": "Example Title",
                        "isJournal": false,
                        "isVideo": false,
                        "isPurchasable": false,
                        "isFavouritable": false,
                        "publishedTime": "2021-05-18T12:23:01-0700",
                        "isTextEditable": false,
                        "legacyTextEditUrl": "unknown",
                        "isShareable": false,
                        "isCommentable": false,
                        "isFavourited": false,
                        "isDeleted": false,
                        "isMature": false,
                        "isDownloadable": false,
                        "isAntisocial": false,
                        "isBlocked": false,
                        "isPublished": false,
                        "isDailyDeviation": false,
                        "hasPrivateComments": false,
                        "blockReasons": [],
                        "author": {
                            "userId": 12345678,
                            "useridUuid": "43d8f41c-cdd8-41d2-9878-11e0f77ea0a3",
                            "username": "ExampleUsername",
                            "usericon": "https://a.deviantart.net/avatars-big/m/o/exampleusername.jpg?4",
                            "type": "regular",
                            "isWatching": false,
                            "isSubscribed": false,
                            "isNewDeviant": true
                        },
                        "stats": {
                            "comments": 18,
                            "favourites": 2063
                        },
                        "media": {
                            "baseUri": "https://images-wixmp-ed30a86b8c4ca887773594c2.wixmp.com/f/49402c4d-1fe3-4f6d-8144-2f58aee8d82d/denu3kl-280bcd78-b8fc-4c60-911a-1ca732a2b7a9.jpg",
                            "prettyName": "example_title_by_exampleusername_denu3kl",
                            "token": [
                                "eyJ0eXAiOiJKV1QiLCJhbGciOiJIUzI1NiJ9.eyJzdWIiO"
                            ],
                            "types": [
                                {
                                    "t": "150",
                                    "r": 0,
                                    "c": "v1/fit/w_150,h_150,q_70,strp/<prettyName>-150.jpg",
                                    "h": 0,
                                    "w": 0
                                }
                            ]
                        }
                    }
                ],
                "collections": [
                    {
                        "collection": [
                            {
                                "folderId": 23456789,
                                "gallectionUuid": "15A01024-5565-4736-AB66-E3E5DB890868",
                                "parentId": 34567890,
                                "type": "collection",
                                "name": "Example collection name\"",
                                "description": "",
                                "owner": {
                                    "userId": 12345678,
                                    "useridUuid": "43d8f41c-cdd8-41d2-9878-11e0f77ea0a3",
                                    "username": "ExampleUsername",
                                    "usericon": "https://a.deviantart.net/avatars-big/m/o/exampleusername.jpg?4",
                                    "type": "regular",
                                    "isWatching": false,
                                    "isSubscribed": false,
                                    "isNewDeviant": true
                                },
                                "commentCount": 0,
                                "size": 227,
                                "thumb": {
                                    "deviationId": 112233445,
                                    "type": "image",
                                    "typeId": 1,
                                    "printId": 2,
                                    "url": "https://www.deviantart.com/exampleusername/art/Example-Title-112233445",
                                    "title": "Example Title",
                                    "isJournal": false,
                                    "isVideo": false,
                                    "isPurchasable": false,
                                    "isFavouritable": false,
                                    "publishedTime": "2021-05-18T12:23:01-0700",
                                    "isTextEditable": false,
                                    "legacyTextEditUrl": "unknown",
                                    "isShareable": false,
                                    "isCommentable": false,
                                    "isFavourited": false,
                                    "isDeleted": false,
                                    "isMature": false,
                                    "isDownloadable": false,
                                    "isAntisocial": false,
                                    "isBlocked": false,
                                    "isPublished": false,
                                    "isDailyDeviation": false,
                                    "hasPrivateComments": false,
                                    "blockReasons": [],
                                    "author": {},
                                    "stats": {},
                                    "media": {
                                        "token": [],
                                        "types": []
                                    }
                                }
                            }
                        ],
                        "deviations": [
                            {
                                "deviationId": 112233445,
                                "type": "image",
                                "typeId": 1,
                                "printId": 2,
                                "url": "https://www.deviantart.com/exampleusername/art/Example-Title-112233445",
                                "title": "Example Title",
                                "isJournal": false,
                                "isVideo": false,
                                "isPurchasable": false,
                                "isFavouritable": false,
                                "publishedTime": "2021-05-18T12:23:01-0700",
                                "isTextEditable": false,
                                "legacyTextEditUrl": "unknown",
                                "isShareable": false,
                                "isCommentable": false,
                                "isFavourited": false,
                                "isDeleted": false,
                                "isMature": false,
                                "isDownloadable": false,
                                "isAntisocial": false,
                                "isBlocked": false,
                                "isPublished": false,
                                "isDailyDeviation": false,
                                "hasPrivateComments": false,
                                "blockReasons": [],
                                "author": {
                                    "userId": 12345678,
                                    "useridUuid": "43d8f41c-cdd8-41d2-9878-11e0f77ea0a3",
                                    "username": "ExampleUsername",
                                    "usericon": "https://a.deviantart.net/avatars-big/m/o/exampleusername.jpg?4",
                                    "type": "regular",
                                    "isWatching": false,
                                    "isSubscribed": false,
                                    "isNewDeviant": true
                                },
                                "stats": {
                                    "comments": 18,
                                    "favourites": 2063
                                },
                                "media": {
                                    "baseUri": "https://images-wixmp-ed30a86b8c4ca887773594c2.wixmp.com/f/49402c4d-1fe3-4f6d-8144-2f58aee8d82d/denu3kl-280bcd78-b8fc-4c60-911a-1ca732a2b7a9.jpg",
                                    "prettyName": "example_title_by_exampleusername_denu3kl",
                                    "token": [
                                        "eyJ0eXAiOiJKV1QiLCJhbGciOiJIUzI1NiJ9.eyJzdWIiO"
                                    ],
                                    "types": [
                                        {}
                                    ]
                                }
                            }
                        ],
                        "groups": [
                            {
                                "userId": 12345678,
                                "useridUuid": "43d8f41c-cdd8-41d2-9878-11e0f77ea0a3",
                                "username": "ExampleUsername",
                                "usericon": "https://a.deviantart.net/avatars-big/m/o/exampleusername.jpg?4",
                                "type": "regular",
                                "isWatching": false,
                                "isSubscribed": false,
                                "isNewDeviant": true
                            }
                        ]
                    }
                ]
            },
            "stats": {
                "views": 175039,
                "today": 1,
                "shares": 0,
                "downloads": 183,
                "groups": 0
            },
            "reportUrl": "https://www.deviantart.com/deviation/report/112233445?is_modal=true",
            "awardedBadges": [
                {
                    "id": 123456789,
                    "typeId": 65,
                    "name": "diamond",
                    "title": "Diamond",
                    "baseTitle": "Diamond",
                    "description": "It's the highest of honors to be awarded an exclusive Diamond badge!",
                    "stackCount": 1,
                    "images": [
                        {
                            "imageUrl": "https://st.deviantart.net/badges/diamond.svg?2",
                            "className": ""
                        }
                    ]
                }
            ]
        }
    },
    "viewMode": "regular",
    "comments": {
        "hasMore": false,
        "hasLess": false,
        "nextOffset": 24,
        "cursor": "4913988710+",
        "prevCursor": "4913988710+",
        "total": 57,
        "canPostComment": true,
        "commentableTypeid": 1,
        "commentableItemid": 123456789,
        "thread": [
            {
                "commentId": 1234567890,
                "typeId": 1,
                "itemId": 12345678,
                "parentId": 12345678,
                "posted": "2021-05-18T12:23:01-0700",
                "edited": "2021-05-18T12:23:01-0700",
                "replies": 0,
                "isOwner": false,
                "isViolation": false,
                "isAdminHidden": false,
                "isHidden": false,
                "isLocked": false,
                "isSpam": false,
                "isPrivate": false,
                "isAnnotation": false,
                "isDeleted": false,
                "isPeekable": false,
                "isAuthor": false,
                "isAuthorHighlighted": false,
                "isAdminMode": false,
                "isFeatured": false,
                "isReportable": false,
                "isLiked": false,
                "likes": 0,
                "hidden": 0,
                "textContent": {
                    "excerpt": "Great...:) http://spamlink.cf/\n",
                    "html": {
                        "type": "draft",
                        "markup": "{\"blocks\":[{\"key\":\"foo\",\"text\":\"Great...:) http://spamlink.cf/\\n\",\"type\":\"unstyled\",\"depth\":0,\"inlineStyleRanges\":[],\"entityRanges\":[{\"offset\":8,\"length\":3,\"key\":0},{\"offset\":11,\"length\":18,\"key\":1}],\"data\":{}}],\"entityMap\":{\"0\":{\"type\":\"DA_OFF_EMOTE\",\"mutability\":\"IMMUTABLE\",\"data\":{\"emote\":\":) \"}},\"1\":{\"type\":\"LINK\",\"mutability\":\"MUTABLE\",\"data\":{\"url\":\"http://spamlink.cf/\"}}}}",
                        "features": "[{\"type\":\"FIRST_IMAGE_FEATURE\",\"data\":[]},{\"type\":\"IS_EMPTY_FEATURE\",\"data\":{\"isEmpty\":false}},{\"type\":\"MEDIA_COUNT_FEATURE\",\"data\":{\"emoji\":0,\"emotes\":1,\"images\":0,\"mentions\":0,\"video\":0,\"previews\":0}},{\"type\":\"WORD_COUNT_FEATURE\",\"data\":{\"words\":4,\"chars\":28}}]"
                    }
                },
                "signature": "string",
                "authorInfo": "Hobbyist Traditional Artist",
                "user": {
                    "userId": 12345678,
                    "useridUuid": "43d8f41c-cdd8-41d2-9878-11e0f77ea0a3",
                    "username": "ExampleUsername",
                    "usericon": "https://a.deviantart.net/avatars-big/m/o/exampleusername.jpg?4",
                    "type": "regular",
                    "isWatching": false,
                    "isSubscribed": false,
                    "isNewDeviant": true
                },
                "legacyTextEditUrl": "string"
            }
        ]
    }
}